{
    "swagger": "2.0",
    "info": {
        "description": "Обрабатывает запросы на конвертацию валют.\nКэширует курсы валют в Redis для быстрого доступа.\nПодписывается на сообщения из Kafka для обновления кэша.\nПроверяет доступность валют перед выполнением конвертации.",
        "title": "Сервис обмена валют Exchange Service API",
        "contact": {},
        "version": "1.0"
    },
    "host": "smataruev.fvds.ru:12000",
    "basePath": "/",
    "paths": {
        "/convert": {
            "get": {
                "description": "Convert amount from one currency to another",
                "consumes": [
                    "application/json"
                ],
                "produces": [
                    "application/json"
                ],
                "tags": [
                    "exchange"
                ],
                "summary": "Convert currency",
                "parameters": [
                    {
                        "type": "string",
                        "description": "From currency code",
                        "name": "from",
                        "in": "query",
                        "required": true
                    },
                    {
                        "type": "string",
                        "description": "To currency code",
                        "name": "to",
                        "in": "query",
                        "required": true
                    },
                    {
                        "type": "number",
                        "description": "Amount to convert",
                        "name": "amount",
                        "in": "query",
                        "required": true
                    }
                ],
                "responses": {
                    "200": {
                        "description": "OK",
                        "schema": {
                            "type": "object",
                            "additionalProperties": true
                        }
                    },
                    "400": {
                        "description": "Bad Request",
                        "schema": {
                            "type": "object",
                            "additionalProperties": true
                        }
                    },
                    "500": {
                        "description": "Internal Server Error",
                        "schema": {
                            "type": "object",
                            "additionalProperties": true
                        }
                    }
                }
            }
        },
        "/currencies": {
            "get": {
                "description": "Get all available currencies",
                "consumes": [
                    "application/json"
                ],
                "produces": [
                    "application/json"
                ],
                "tags": [
                    "all currencies"
                ],
                "summary": "Get all currencies",
                "operationId": "get_currencies_get",
                "responses": {
                    "200": {
                        "description": "OK",
                        "schema": {
                            "type": "array",
                            "items": {
                                "type": "object",
                                "additionalProperties": true
                            }
                        }
                    },
                    "500": {
                        "description": "Internal Server Error",
                        "schema": {
                            "type": "object",
                            "additionalProperties": true
                        }
                    }
                }
            }
        }
    }
}
